…
### Cleaning the data

In order to properly compare and later merge the tables, I chose to
change all of the column names to lowercase. This helps ensure that the
syntax being used across all tables matches.

``` r
daily_activity<- rename_with(daily_activity, tolower)
clean_names(daily_activity)
```

    ## # A tibble: 940 × 15
    ##            id activitydate totalsteps totaldistance trackerdistance
    ##         <dbl> <chr>             <dbl>         <dbl>           <dbl>
    ##  1 1503960366 4/12/2016         13162          8.5             8.5 
    ##  2 1503960366 4/13/2016         10735          6.97            6.97
    ##  3 1503960366 4/14/2016         10460          6.74            6.74
    ##  4 1503960366 4/15/2016          9762          6.28            6.28
    ##  5 1503960366 4/16/2016         12669          8.16            8.16
    ##  6 1503960366 4/17/2016          9705          6.48            6.48
    ##  7 1503960366 4/18/2016         13019          8.59            8.59
    ##  8 1503960366 4/19/2016         15506          9.88            9.88
    ##  9 1503960366 4/20/2016         10544          6.68            6.68
    ## 10 1503960366 4/21/2016          9819          6.34            6.34
    ## # ℹ 930 more rows
    ## # ℹ 10 more variables: loggedactivitiesdistance <dbl>,
    ## #   veryactivedistance <dbl>, moderatelyactivedistance <dbl>,
    ## #   lightactivedistance <dbl>, sedentaryactivedistance <dbl>,
    ## #   veryactiveminutes <dbl>, fairlyactiveminutes <dbl>,
    ## #   lightlyactiveminutes <dbl>, sedentaryminutes <dbl>, calories <dbl>

``` r
daily_sleep <- rename_with(daily_sleep, tolower)
clean_names(daily_sleep)
```

    ## # A tibble: 413 × 5
    ##            id sleepday       totalsleeprecords totalminutesasleep totaltimeinbed
    ##         <dbl> <chr>                      <dbl>              <dbl>          <dbl>
    ##  1 1503960366 4/12/2016 12:…                 1                327            346
    ##  2 1503960366 4/13/2016 12:…                 2                384            407
    ##  3 1503960366 4/15/2016 12:…                 1                412            442
    ##  4 1503960366 4/16/2016 12:…                 2                340            367
    ##  5 1503960366 4/17/2016 12:…                 1                700            712
    ##  6 1503960366 4/19/2016 12:…                 1                304            320
    ##  7 1503960366 4/20/2016 12:…                 1                360            377
    ##  8 1503960366 4/21/2016 12:…                 1                325            364
    ##  9 1503960366 4/23/2016 12:…                 1                361            384
    ## 10 1503960366 4/24/2016 12:…                 1                430            449
    ## # ℹ 403 more rows

``` r
hourly_calories <- rename_with(hourly_calories, tolower)
clean_names(hourly_calories)
```

    ## # A tibble: 22,099 × 3
    ##            id activityhour          calories
    ##         <dbl> <chr>                    <dbl>
    ##  1 1503960366 4/12/2016 12:00:00 AM       81
    ##  2 1503960366 4/12/2016 1:00:00 AM        61
    ##  3 1503960366 4/12/2016 2:00:00 AM        59
    ##  4 1503960366 4/12/2016 3:00:00 AM        47
    ##  5 1503960366 4/12/2016 4:00:00 AM        48
    ##  6 1503960366 4/12/2016 5:00:00 AM        48
    ##  7 1503960366 4/12/2016 6:00:00 AM        48
    ##  8 1503960366 4/12/2016 7:00:00 AM        47
    ##  9 1503960366 4/12/2016 8:00:00 AM        68
    ## 10 1503960366 4/12/2016 9:00:00 AM       141
    ## # ℹ 22,089 more rows

``` r
hourly_steps <- rename_with(hourly_steps, tolower)
clean_names(hourly_steps)
```

    ## # A tibble: 22,099 × 3
    ##            id activityhour          steptotal
    ##         <dbl> <chr>                     <dbl>
    ##  1 1503960366 4/12/2016 12:00:00 AM       373
    ##  2 1503960366 4/12/2016 1:00:00 AM        160
    ##  3 1503960366 4/12/2016 2:00:00 AM        151
    ##  4 1503960366 4/12/2016 3:00:00 AM          0
    ##  5 1503960366 4/12/2016 4:00:00 AM          0
    ##  6 1503960366 4/12/2016 5:00:00 AM          0
    ##  7 1503960366 4/12/2016 6:00:00 AM          0
    ##  8 1503960366 4/12/2016 7:00:00 AM          0
    ##  9 1503960366 4/12/2016 8:00:00 AM        250
    ## 10 1503960366 4/12/2016 9:00:00 AM       1864
    ## # ℹ 22,089 more rows
…
